baseline
/data/This is the subject line/new/1470607508_0.28167.ip-172-31-59-79,U=11087,FMD5=52720873637cc9f00c925e4f3075784d:2,
original m_b is: ['', '7', 'Aug', '2016', '22:00:01']
['07', '08', '2016', '22:00']
l1md: 7
 7 Aug 2016 22:00:01
B_Message-ID:  20160807220001.1268E2460F@colab-sbx-376.oit.duke.edu
l2md: 7
delay:  16 seconds
Google_Link
/data/Google_Link/new/1470607507_0.28167.ip-172-31-59-79,U=9501,FMD5=6c9459e25aa09e1aa57801bb46463a5c:2,
original m_gl is: ['', '7', 'Aug', '2016', '22:00:01']
['07', '08', '2016', '22:00']
l1md: 7
 7 Aug 2016 22:00:01
GL_Message-ID:  20160807220001.1585724630@colab-sbx-376.oit.duke.edu
l2md: 7
delay:  13 seconds
Amazon SES Baseline
/data/Amazon2 SES/new/1470607505_0.28167.ip-172-31-59-79,U=17014,FMD5=75ec1841ba70b096958c25e492580753:2,
 verify=NOT)	for <sy120@duke.edu>; Sun, 7 Aug 2016 18:00:01 -0400

mark:  7 Aug 2016 18:00:01
original m_gl is: ['7', 'Aug', '2016', '18:00:01']
EDT  ['07', '08', '2016', '18:00']
t_w1:  2016-08-07 18:00:00
l1md: 7
list1: [18, 0, 1]
W1_Message-ID:  0100015667051046-2a63eb02-2aa5-4191-8cc2-3950e858b032-000000@email.amazonses.com
original m_gl is: ['07', 'Aug', '2016', '22:00:02.4467\n']
['07', '08', '2016', '22:00']
UTC: ['07', '08', '2016', '22:00']
l2md: 7
list2: [22, 0, 2]
delay:  1 seconds
Amazon SES_Google_Link
/data/Amazon2_SES_Google_Link/new/1470607505_1.28167.ip-172-31-59-79,U=7804,FMD5=2140eeaf9bf2217019ecf25cd06215e9:2,
 verify=NOT)	for <sy120@duke.edu>; Sun, 7 Aug 2016 18:00:01 -0400

mark:  7 Aug 2016 18:00:01
original m_gl is: ['7', 'Aug', '2016', '18:00:01']
['07', '08', '2016', '18:00']
t_w2:  2016-08-07 18:00:00
l1md: 7
list1: [18, 0, 1]
W2_Message-ID: 010001566705103e-c4c931f4-ebab-40cc-8580-092d1a8622a3-000000@email.amazonses.com
original m_gl is: ['07', 'Aug', '2016', '22:00:03.8035\n']
['07', '08', '2016', '22:00']
l2md: 7
list2: [22, 0, 3]
delay:  2 seconds
baseline length
1
1
1
1
1
1
Google_Link length
1
1
1
1
1
1
Amazon_SES_baseline
1
1
1
1
1
1
Amazon_SES_Link
1
1
1
1
1
1
