Server:		152.3.70.100
Address:	152.3.70.100#53

Non-authoritative answer:
www.amazon.com	canonical name = www.cdn.amazon.com.
www.cdn.amazon.com	canonical name = d3ag4hukkh62yn.cloudfront.net.
Name:	d3ag4hukkh62yn.cloudfront.net
Address: 52.84.118.105
Name:	d3ag4hukkh62yn.cloudfront.net
Address: 52.84.118.116
Name:	d3ag4hukkh62yn.cloudfront.net
Address: 52.84.118.247
Name:	d3ag4hukkh62yn.cloudfront.net
Address: 52.84.118.178


real	0m0.010s
user	0m0.008s
sys	0m0.000s
