wlan0     IEEE 802.11an  ESSID:"Dukeblue"  Nickname:"<WIFI@REALTEK>"
          Mode:Managed  Frequency:5.5 GHz  Access Point: 0C:85:25:AB:53:4F   
          Bit Rate:150 Mb/s   Sensitivity:0/0  
          Retry:off   RTS thr:off   Fragment thr:off
          Encryption key:****-****-****-****-****-****-****-****   Security mode:open
          Power Management:off
          Link Quality=83/100  Signal level=86/100  Noise level=0/100
          Rx invalid nwid:0  Rx invalid crypt:0  Rx invalid frag:0
          Tx excessive retries:0  Invalid misc:0   Missed beacon:0

